[gd_scene load_steps=8 format=2]

[ext_resource path="res://assets/tileset.png" type="Texture" id=1]
[ext_resource path="res://environment/Switch.gd" type="Script" id=2]
[ext_resource path="res://components/Hurtbox.gd" type="Script" id=3]
[ext_resource path="res://assets/sounds/switch.wav" type="AudioStream" id=4]
[ext_resource path="res://characters/whitening_shader.material" type="Material" id=5]

[sub_resource type="RectangleShape2D" id=1]
extents = Vector2( 8, 6.5 )

[sub_resource type="RectangleShape2D" id=2]

[node name="Switch" type="StaticBody2D"]
script = ExtResource( 2 )

[node name="Sprite" type="Sprite" parent="."]
material = ExtResource( 5 )
position = Vector2( 0, -8 )
texture = ExtResource( 1 )
hframes = 2
region_enabled = true
region_rect = Rect2( 80, 192, 32, 16 )

[node name="CollisionShape2D" type="CollisionShape2D" parent="."]
position = Vector2( 0, -7.5 )
shape = SubResource( 1 )

[node name="Hurtbox" type="Area2D" parent="."]
collision_layer = 16
collision_mask = 0
script = ExtResource( 3 )

[node name="CollisionShape2D" type="CollisionShape2D" parent="Hurtbox"]
position = Vector2( 0, -7 )
shape = SubResource( 2 )

[node name="SwitchSound" type="AudioStreamPlayer2D" parent="."]
stream = ExtResource( 4 )
max_distance = 320.0
attenuation = 2.5
[connection signal="area_entered" from="Hurtbox" to="." method="_on_Hurtbox_area_entered"]
