[gd_scene load_steps=4 format=2]

[ext_resource path="res://ui/TouchScreenButton.gd" type="Script" id=1]
[ext_resource path="res://assets/ui/button_a.png" type="Texture" id=2]

[sub_resource type="CircleShape2D" id=1]
radius = 40.0

[node name="TouchScreenButton" type="TouchScreenButton"]
modulate = Color( 1, 1, 1, 0.501961 )
normal = ExtResource( 2 )
shape = SubResource( 1 )
script = ExtResource( 1 )
[connection signal="pressed" from="." to="." method="_on_pressed"]
[connection signal="released" from="." to="." method="_on_released"]
